{
  "info": {
    "_postman_id": "ea3fc4a2-df3a-47b7-a060-e6db9252e961",
    "name": "Rainbow User API",
    "schema": "https://schema.getpostman.com/json/collection/v2.1.0/collection.json"
  },
  "item": [
    {
      "name": "Health Check",
      "request": {
        "method": "GET",
        "header": [],
        "url": {
          "raw": "{{url}}/v1/health",
          "host": [
            "{{url}}"
          ],
          "path": [
            "v1",
            "health"
          ]
        }
      },
      "response": []
    },
    {
      "name": "Create a new User",
      "request": {
        "method": "POST",
        "header": [],
        "body": {
          "mode": "raw",
          "raw": "{ \n\t\"email\": \"dummy@dummy.com\", \n\t\"password\": \"dummy1234567\", \n\t\"confirm_password\": \"dummy1234567\"\n}",
          "options": {
            "raw": {
              "language": "json"
            }
          }
        },
        "url": {
          "raw": "{{url}}/v1/account/signin",
          "host": [
            "{{url}}"
          ],
          "path": [
            "v1",
            "account",
            "signin"
          ]
        },
        "description": "Create new User"
      },
      "response": []
    },
    {
      "name": "Login",
      "event": [
        {
          "listen": "test",
          "script": {
            "id": "6431c64f-97e7-44fa-80b2-21fb3e94a31e",
            "exec": [
              "",
              "var jsonData = JSON.parse(responseBody);",
              "postman.setEnvironmentVariable(\"login_token\", jsonData.payload.bearer_token);",
              ""
            ],
            "type": "text/javascript"
          }
        },
        {
          "listen": "prerequest",
          "script": {
            "id": "478318f2-6071-49fd-b1bc-7b09b6bcfd04",
            "exec": [
              ""
            ],
            "type": "text/javascript"
          }
        }
      ],
      "request": {
        "method": "PUT",
        "header": [],
        "body": {
          "mode": "raw",
          "raw": "{ \n\t\"email\": \"dummy@dummy.com\", \n\t\"password\": \"dummy1234567\"\n}",
          "options": {
            "raw": {
              "language": "json"
            }
          }
        },
        "url": {
          "raw": "{{url}}/v1/account/login",
          "host": [
            "{{url}}"
          ],
          "path": [
            "v1",
            "account",
            "login"
          ]
        }
      },
      "response": []
    },
    {
      "name": "Update Account Password",
      "request": {
        "auth": {
          "type": "bearer",
          "bearer": [
            {
              "key": "token",
              "value": "{{login_token}}",
              "type": "string"
            }
          ]
        },
        "method": "PUT",
        "header": [],
        "body": {
          "mode": "raw",
          "raw": "{ \n\t\"password\": \"dummy1234567\",\n\t\"new_password\": \"dummy1234567\", \n\t\"confirm_password\": \"dummy1234567\"\n}",
          "options": {
            "raw": {
              "language": "json"
            }
          }
        },
        "url": {
          "raw": "{{url}}/v1/account/pass/update",
          "host": [
            "{{url}}"
          ],
          "path": [
            "v1",
            "account",
            "pass",
            "update"
          ]
        }
      },
      "response": []
    },
    {
      "name": "Mark account to be deleted",
      "request": {
        "auth": {
          "type": "noauth"
        },
        "method": "PUT",
        "header": [],
        "body": {
          "mode": "raw",
          "raw": "{ \n\t\"email\": \"dummy@dummy.com\", \n\t\"password\": \"dummy1234567\"\n}",
          "options": {
            "raw": {
              "language": "json"
            }
          }
        },
        "url": {
          "raw": "{{url}}/v1/account/delete",
          "host": [
            "{{url}}"
          ],
          "path": [
            "v1",
            "account",
            "delete"
          ]
        }
      },
      "response": []
    },
    {
      "name": "Restore account",
      "request": {
        "auth": {
          "type": "noauth"
        },
        "method": "PUT",
        "header": [],
        "body": {
          "mode": "raw",
          "raw": "{ \n\t\"email\": \"dummy@dummy.com\", \n\t\"password\": \"dummy1234567\"\n}",
          "options": {
            "raw": {
              "language": "json"
            }
          }
        },
        "url": {
          "raw": "{{url}}/v1/account/restore",
          "host": [
            "{{url}}"
          ],
          "path": [
            "v1",
            "account",
            "restore"
          ]
        }
      },
      "response": []
    },
    {
      "name": "Suspend Account",
      "request": {
        "auth": {
          "type": "noauth"
        },
        "method": "PUT",
        "header": [],
        "body": {
          "mode": "raw",
          "raw": "{ \n\t\"email\": \"dummy@dummy.com\", \n\t\"password\": \"dummy1234567\"\n}",
          "options": {
            "raw": {
              "language": "json"
            }
          }
        },
        "url": {
          "raw": "{{url}}/v1/account/suspend",
          "host": [
            "{{url}}"
          ],
          "path": [
            "v1",
            "account",
            "suspend"
          ]
        }
      },
      "response": []
    },
    {
      "name": "Unsuspend Account",
      "request": {
        "auth": {
          "type": "noauth"
        },
        "method": "PUT",
        "header": [],
        "body": {
          "mode": "raw",
          "raw": "{ \n\t\"email\": \"dummy@dummy.com\", \n\t\"password\": \"dummy1234567\"\n}",
          "options": {
            "raw": {
              "language": "json"
            }
          }
        },
        "url": {
          "raw": "{{url}}/v1/account/unsuspend",
          "host": [
            "{{url}}"
          ],
          "path": [
            "v1",
            "account",
            "unsuspend"
          ]
        }
      },
      "response": []
    },
    {
      "name": "Request New code to verify Email",
      "request": {
        "method": "POST",
        "header": [],
        "body": {
          "mode": "raw",
          "raw": "{\n\t\"email\": \"dummy@dummy.com\"\n}",
          "options": {
            "raw": {
              "language": "json"
            }
          }
        },
        "url": {
          "raw": "{{url}}/v1/email/newcode",
          "host": [
            "{{url}}"
          ],
          "path": [
            "v1",
            "email",
            "newcode"
          ]
        }
      },
      "response": []
    },
    {
      "name": "Verify Email with code",
      "request": {
        "method": "PUT",
        "header": [],
        "body": {
          "mode": "raw",
          "raw": "{\n\t\"id\": \"523980c3-66d4-4a0c-a317-1964f6fa7e23\"\n}",
          "options": {
            "raw": {
              "language": "json"
            }
          }
        },
        "url": {
          "raw": "{{url}}/v1/email/validate",
          "host": [
            "{{url}}"
          ],
          "path": [
            "v1",
            "email",
            "validate"
          ]
        }
      },
      "response": []
    },
    {
      "name": "Request New code to Reset Password",
      "request": {
        "method": "POST",
        "header": [],
        "body": {
          "mode": "raw",
          "raw": "{\n\t\"email\": \"dummy@dummy.com\"\n}",
          "options": {
            "raw": {
              "language": "json"
            }
          }
        },
        "url": {
          "raw": "{{url}}/v1/pass/newcode",
          "host": [
            "{{url}}"
          ],
          "path": [
            "v1",
            "pass",
            "newcode"
          ]
        }
      },
      "response": []
    },
    {
      "name": "Reset Password with code",
      "request": {
        "method": "PUT",
        "header": [],
        "body": {
          "mode": "raw",
          "raw": "{\n\t\"id\": \"320123c2-47c2-40c1-8e1c-65eaa68b9eab\",\n\t\"email\": \"dummy@dummy.com\",\n\t\"password\": \"dummy1234567\",\n\t\"new_password\": \"bla1234567\",\n\t\"confirm_password\": \"bla1234567\"\n}",
          "options": {
            "raw": {
              "language": "json"
            }
          }
        },
        "url": {
          "raw": "{{url}}/v1/pass/reset",
          "host": [
            "{{url}}"
          ],
          "path": [
            "v1",
            "pass",
            "reset"
          ]
        }
      },
      "response": []
    },
    {
      "name": "Get Profile",
      "request": {
        "auth": {
          "type": "bearer",
          "bearer": [
            {
              "key": "token",
              "value": "{{login_token}}",
              "type": "string"
            }
          ]
        },
        "method": "GET",
        "header": [],
        "url": {
          "raw": "{{url}}/v1/profile",
          "host": [
            "{{url}}"
          ],
          "path": [
            "v1",
            "profile"
          ]
        }
      },
      "response": []
    },
    {
      "name": "Update Profile Info",
      "request": {
        "auth": {
          "type": "bearer",
          "bearer": [
            {
              "key": "token",
              "value": "{{login_token}}",
              "type": "string"
            }
          ]
        },
        "method": "PATCH",
        "header": [],
        "body": {
          "mode": "raw",
          "raw": "{\n\t\"first_name\": \"Dummy Dummy\",\n\t\"last_name\": \"Uni Uni\",\n\t\"mobile\": \"76543212\",\n\t\"gender\": \"trans\"\n}",
          "options": {
            "raw": {
              "language": "json"
            }
          }
        },
        "url": {
          "raw": "{{url}}/v1/profile/info",
          "host": [
            "{{url}}"
          ],
          "path": [
            "v1",
            "profile",
            "info"
          ]
        }
      },
      "response": []
    },
    {
      "name": "Update Profile Avatar",
      "request": {
        "auth": {
          "type": "bearer",
          "bearer": [
            {
              "key": "token",
              "value": "{{login_token}}",
              "type": "string"
            }
          ]
        },
        "method": "PATCH",
        "header": [],
        "body": {
          "mode": "formdata",
          "formdata": [
            {
              "key": "avatar",
              "type": "file",
              "src": "/home/thiago/Pictures/personal/profile-photos/00003728.JPG"
            }
          ],
          "options": {
            "raw": {
              "language": "json"
            }
          }
        },
        "url": {
          "raw": "{{url}}/v1/profile/avatar",
          "host": [
            "{{url}}"
          ],
          "path": [
            "v1",
            "profile",
            "avatar"
          ]
        }
      },
      "response": []
    },
    {
      "name": "Delete Profile",
      "request": {
        "auth": {
          "type": "bearer",
          "bearer": [
            {
              "key": "token",
              "value": "{{login_token}}",
              "type": "string"
            }
          ]
        },
        "method": "DELETE",
        "header": [],
        "url": {
          "raw": "{{url}}/v1/profile",
          "host": [
            "{{url}}"
          ],
          "path": [
            "v1",
            "profile"
          ]
        }
      },
      "response": []
    }
  ],
  "event": [
    {
      "listen": "prerequest",
      "script": {
        "id": "ac17f3e7-9791-43c9-91b5-ba994ccbecd5",
        "type": "text/javascript",
        "exec": [
          ""
        ]
      }
    },
    {
      "listen": "test",
      "script": {
        "id": "3f881b70-3709-42f4-8eed-92f7ce042e34",
        "type": "text/javascript",
        "exec": [
          ""
        ]
      }
    }
  ],
  "protocolProfileBehavior": {}
}